…
## Data Cleaning

    ## # A tibble: 285 × 7
    ##       id Sex      Age Recipient Recipient_chr MTotal STotal
    ##    <dbl> <chr>  <dbl>     <dbl> <chr>          <dbl>  <dbl>
    ##  1 21482 Female    18         3 Stranger           2      0
    ##  2 21595 Male      19         2 Friend             2      2
    ##  3 21753 Female    19         1 Self               1      1
    ##  4 21713 Female    19         3 Stranger           3      0
    ##  5 21564 Female    18         1 Self               2      1
    ##  6 21419 Female    19         2 Friend             3      0
    ##  7 21359 Male      20         2 Friend             3      0
    ##  8 21418 Male      20         3 Stranger           3      0
    ##  9 21460 Female    19         2 Friend             2      0
    ## 10 21495 Female    22         1 Self               3      1
    ## # … with 275 more rows
…
